(module TQFP32-08 (layer F.Cu) (tedit 0)
  (descr "<B>Thin Plasic Quad Flat Package</B> Grid 0.8 mm")
  (fp_text reference 328-1 (at -2.7686 -5.08) (layer F.SilkS)
    (effects (font (size 0.77216 0.77216) (thickness 0.065024)) (justify left bottom))
  )
  (fp_text value ATMEGA328P-AU (at -3.0226 1.27) (layer F.Fab)
    (effects (font (size 0.77216 0.77216) (thickness 0.065024)) (justify left bottom))
  )
  (fp_line (start 3.505 -3.505) (end 3.505 3.505) (layer F.SilkS) (width 0.1524))
  (fp_line (start 3.505 3.505) (end -3.505 3.505) (layer F.SilkS) (width 0.1524))
  (fp_line (start -3.505 3.505) (end -3.505 -3.15) (layer F.SilkS) (width 0.1524))
  (fp_line (start -3.15 -3.505) (end 3.505 -3.505) (layer F.SilkS) (width 0.1524))
  (fp_line (start -3.15 -3.505) (end -3.505 -3.15) (layer F.SilkS) (width 0.1524))
  (fp_circle (center -2.7432 -2.7432) (end -2.384 -2.7432) (layer F.SilkS) (width 0.1524))
  (fp_poly (pts (xy -4.5466 -2.5714) (xy -3.556 -2.5714) (xy -3.556 -3.0286) (xy -4.5466 -3.0286)) (layer F.Fab) (width 0))
  (fp_poly (pts (xy -4.5466 -1.7714) (xy -3.556 -1.7714) (xy -3.556 -2.2286) (xy -4.5466 -2.2286)) (layer F.Fab) (width 0))
  (fp_poly (pts (xy -4.5466 -0.9714) (xy -3.556 -0.9714) (xy -3.556 -1.4286) (xy -4.5466 -1.4286)) (layer F.Fab) (width 0))
  (fp_poly (pts (xy -4.5466 -0.1714) (xy -3.556 -0.1714) (xy -3.556 -0.6286) (xy -4.5466 -0.6286)) (layer F.Fab) (width 0))
  (fp_poly (pts (xy -4.5466 0.6286) (xy -3.556 0.6286) (xy -3.556 0.1714) (xy -4.5466 0.1714)) (layer F.Fab) (width 0))
  (fp_poly (pts (xy -4.5466 1.4286) (xy -3.556 1.4286) (xy -3.556 0.9714) (xy -4.5466 0.9714)) (layer F.Fab) (width 0))
  (fp_poly (pts (xy -4.5466 2.2286) (xy -3.556 2.2286) (xy -3.556 1.7714) (xy -4.5466 1.7714)) (layer F.Fab) (width 0))
  (fp_poly (pts (xy -4.5466 3.0286) (xy -3.556 3.0286) (xy -3.556 2.5714) (xy -4.5466 2.5714)) (layer F.Fab) (width 0))
  (fp_poly (pts (xy -3.0286 4.5466) (xy -2.5714 4.5466) (xy -2.5714 3.556) (xy -3.0286 3.556)) (layer F.Fab) (width 0))
  (fp_poly (pts (xy -2.2286 4.5466) (xy -1.7714 4.5466) (xy -1.7714 3.556) (xy -2.2286 3.556)) (layer F.Fab) (width 0))
  (fp_poly (pts (xy -1.4286 4.5466) (xy -0.9714 4.5466) (xy -0.9714 3.556) (xy -1.4286 3.556)) (layer F.Fab) (width 0))
  (fp_poly (pts (xy -0.6286 4.5466) (xy -0.1714 4.5466) (xy -0.1714 3.556) (xy -0.6286 3.556)) (layer F.Fab) (width 0))
  (fp_poly (pts (xy 0.1714 4.5466) (xy 0.6286 4.5466) (xy 0.6286 3.556) (xy 0.1714 3.556)) (layer F.Fab) (width 0))
  (fp_poly (pts (xy 0.9714 4.5466) (xy 1.4286 4.5466) (xy 1.4286 3.556) (xy 0.9714 3.556)) (layer F.Fab) (width 0))
  (fp_poly (pts (xy 1.7714 4.5466) (xy 2.2286 4.5466) (xy 2.2286 3.556) (xy 1.7714 3.556)) (layer F.Fab) (width 0))
  (fp_poly (pts (xy 2.5714 4.5466) (xy 3.0286 4.5466) (xy 3.0286 3.556) (xy 2.5714 3.556)) (layer F.Fab) (width 0))
  (fp_poly (pts (xy 3.556 3.0286) (xy 4.5466 3.0286) (xy 4.5466 2.5714) (xy 3.556 2.5714)) (layer F.Fab) (width 0))
  (fp_poly (pts (xy 3.556 2.2286) (xy 4.5466 2.2286) (xy 4.5466 1.7714) (xy 3.556 1.7714)) (layer F.Fab) (width 0))
  (fp_poly (pts (xy 3.556 1.4286) (xy 4.5466 1.4286) (xy 4.5466 0.9714) (xy 3.556 0.9714)) (layer F.Fab) (width 0))
  (fp_poly (pts (xy 3.556 0.6286) (xy 4.5466 0.6286) (xy 4.5466 0.1714) (xy 3.556 0.1714)) (layer F.Fab) (width 0))
  (fp_poly (pts (xy 3.556 -0.1714) (xy 4.5466 -0.1714) (xy 4.5466 -0.6286) (xy 3.556 -0.6286)) (layer F.Fab) (width 0))
  (fp_poly (pts (xy 3.556 -0.9714) (xy 4.5466 -0.9714) (xy 4.5466 -1.4286) (xy 3.556 -1.4286)) (layer F.Fab) (width 0))
  (fp_poly (pts (xy 3.556 -1.7714) (xy 4.5466 -1.7714) (xy 4.5466 -2.2286) (xy 3.556 -2.2286)) (layer F.Fab) (width 0))
  (fp_poly (pts (xy 3.556 -2.5714) (xy 4.5466 -2.5714) (xy 4.5466 -3.0286) (xy 3.556 -3.0286)) (layer F.Fab) (width 0))
  (fp_poly (pts (xy 2.5714 -3.556) (xy 3.0286 -3.556) (xy 3.0286 -4.5466) (xy 2.5714 -4.5466)) (layer F.Fab) (width 0))
  (fp_poly (pts (xy 1.7714 -3.556) (xy 2.2286 -3.556) (xy 2.2286 -4.5466) (xy 1.7714 -4.5466)) (layer F.Fab) (width 0))
  (fp_poly (pts (xy 0.9714 -3.556) (xy 1.4286 -3.556) (xy 1.4286 -4.5466) (xy 0.9714 -4.5466)) (layer F.Fab) (width 0))
  (fp_poly (pts (xy 0.1714 -3.556) (xy 0.6286 -3.556) (xy 0.6286 -4.5466) (xy 0.1714 -4.5466)) (layer F.Fab) (width 0))
  (fp_poly (pts (xy -0.6286 -3.556) (xy -0.1714 -3.556) (xy -0.1714 -4.5466) (xy -0.6286 -4.5466)) (layer F.Fab) (width 0))
  (fp_poly (pts (xy -1.4286 -3.556) (xy -0.9714 -3.556) (xy -0.9714 -4.5466) (xy -1.4286 -4.5466)) (layer F.Fab) (width 0))
  (fp_poly (pts (xy -2.2286 -3.556) (xy -1.7714 -3.556) (xy -1.7714 -4.5466) (xy -2.2286 -4.5466)) (layer F.Fab) (width 0))
  (fp_poly (pts (xy -3.0286 -3.556) (xy -2.5714 -3.556) (xy -2.5714 -4.5466) (xy -3.0286 -4.5466)) (layer F.Fab) (width 0))
  (pad 1 smd rect (at -4.4196 -2.8) (size 1.016 0.4064) (layers F.Cu F.Paste F.Mask)
    (solder_mask_margin 0.1016))
  (pad 2 smd rect (at -4.1656 -2) (size 1.524 0.3556) (layers F.Cu F.Paste F.Mask)
    (solder_mask_margin 0.1016))
  (pad 3 smd rect (at -4.1656 -1.2) (size 1.524 0.3556) (layers F.Cu F.Paste F.Mask)
    (solder_mask_margin 0.1016))
  (pad 4 smd rect (at -4.1656 -0.4) (size 1.524 0.3556) (layers F.Cu F.Paste F.Mask)
    (solder_mask_margin 0.1016))
  (pad 5 smd rect (at -4.1656 0.4) (size 1.524 0.3556) (layers F.Cu F.Paste F.Mask)
    (solder_mask_margin 0.1016))
  (pad 6 smd rect (at -4.1656 1.2) (size 1.524 0.3556) (layers F.Cu F.Paste F.Mask)
    (solder_mask_margin 0.1016))
  (pad 7 smd rect (at -4.1656 2) (size 1.524 0.3556) (layers F.Cu F.Paste F.Mask)
    (solder_mask_margin 0.1016))
  (pad 8 smd rect (at -4.4196 2.8) (size 1.016 0.4064) (layers F.Cu F.Paste F.Mask)
    (solder_mask_margin 0.1016))
  (pad 9 smd rect (at -2.8 4.4196) (size 0.4064 1.016) (layers F.Cu F.Paste F.Mask)
    (solder_mask_margin 0.1016))
  (pad 10 smd rect (at -2 4.1656) (size 0.3556 1.524) (layers F.Cu F.Paste F.Mask)
    (solder_mask_margin 0.1016))
  (pad 11 smd rect (at -1.2 4.1656) (size 0.3556 1.524) (layers F.Cu F.Paste F.Mask)
    (solder_mask_margin 0.1016))
  (pad 12 smd rect (at -0.4 4.1656) (size 0.3556 1.524) (layers F.Cu F.Paste F.Mask)
    (solder_mask_margin 0.1016))
  (pad 13 smd rect (at 0.4 4.1656) (size 0.3556 1.524) (layers F.Cu F.Paste F.Mask)
    (solder_mask_margin 0.1016))
  (pad 14 smd rect (at 1.2 4.1656) (size 0.3556 1.524) (layers F.Cu F.Paste F.Mask)
    (solder_mask_margin 0.1016))
  (pad 15 smd rect (at 2 4.1656) (size 0.3556 1.524) (layers F.Cu F.Paste F.Mask)
    (solder_mask_margin 0.1016))
  (pad 16 smd rect (at 2.8 4.4196) (size 0.4064 1.016) (layers F.Cu F.Paste F.Mask)
    (solder_mask_margin 0.1016))
  (pad 17 smd rect (at 4.4196 2.8) (size 1.016 0.4064) (layers F.Cu F.Paste F.Mask)
    (solder_mask_margin 0.1016))
  (pad 18 smd rect (at 4.1656 2) (size 1.524 0.3556) (layers F.Cu F.Paste F.Mask)
    (solder_mask_margin 0.1016))
  (pad 19 smd rect (at 4.1656 1.2) (size 1.524 0.3556) (layers F.Cu F.Paste F.Mask)
    (solder_mask_margin 0.1016))
  (pad 20 smd rect (at 4.1656 0.4) (size 1.524 0.3556) (layers F.Cu F.Paste F.Mask)
    (solder_mask_margin 0.1016))
  (pad 21 smd rect (at 4.1656 -0.4) (size 1.524 0.3556) (layers F.Cu F.Paste F.Mask)
    (solder_mask_margin 0.1016))
  (pad 22 smd rect (at 4.1656 -1.2) (size 1.524 0.3556) (layers F.Cu F.Paste F.Mask)
    (solder_mask_margin 0.1016))
  (pad 23 smd rect (at 4.1656 -2) (size 1.524 0.3556) (layers F.Cu F.Paste F.Mask)
    (solder_mask_margin 0.1016))
  (pad 24 smd rect (at 4.4196 -2.8) (size 1.016 0.4064) (layers F.Cu F.Paste F.Mask)
    (solder_mask_margin 0.1016))
  (pad 25 smd rect (at 2.8 -4.4196) (size 0.4064 1.016) (layers F.Cu F.Paste F.Mask)
    (solder_mask_margin 0.1016))
  (pad 26 smd rect (at 2 -4.1656) (size 0.3556 1.524) (layers F.Cu F.Paste F.Mask)
    (solder_mask_margin 0.1016))
  (pad 27 smd rect (at 1.2 -4.1656) (size 0.3556 1.524) (layers F.Cu F.Paste F.Mask)
    (solder_mask_margin 0.1016))
  (pad 28 smd rect (at 0.4 -4.1656) (size 0.3556 1.524) (layers F.Cu F.Paste F.Mask)
    (solder_mask_margin 0.1016))
  (pad 29 smd rect (at -0.4 -4.1656) (size 0.3556 1.524) (layers F.Cu F.Paste F.Mask)
    (solder_mask_margin 0.1016))
  (pad 30 smd rect (at -1.2 -4.1656) (size 0.3556 1.524) (layers F.Cu F.Paste F.Mask)
    (solder_mask_margin 0.1016))
  (pad 31 smd rect (at -2 -4.1656) (size 0.3556 1.524) (layers F.Cu F.Paste F.Mask)
    (solder_mask_margin 0.1016))
  (pad 32 smd rect (at -2.8 -4.4196) (size 0.4064 1.016) (layers F.Cu F.Paste F.Mask)
    (solder_mask_margin 0.1016))
)
