Id;Designator;Package;Quantity;Designation;Supplier and ref
1;Work-Crtl-GND1,Work-Crtl1;PinHeader_1x03_P2.54mm_Vertical_0.91_hole;2;Conn_01x03_Male;
2;Utility-GND1,Utility-Crtl1,Spindel-GND1,Spindel-Crtl1,Limit-Z-GND1,Limit-Z-Crtl1,Limit-Y-GND1,Limit-Y-Crtl1,Limit-X-GND1,Limit-X-Crtl1;PinHeader_1x02_P2.54mm_Vertical_0.91_hole;10;Conn_01x02_Male;
3;J13;PinHeader_1x02_P2.54mm_Vertical_0.91_hole;1;Z-MS3;
4;J12;PinHeader_1x02_P2.54mm_Vertical_0.91_hole;1;Z-MS2;
5;J11;PinHeader_1x02_P2.54mm_Vertical_0.91_hole;1;Z-MS1;
6;J10;PinHeader_1x02_P2.54mm_Vertical_0.91_hole;1;Y2-MS3;
7;J9;PinHeader_1x02_P2.54mm_Vertical_0.91_hole;1;Y2-MS2;
8;J8;PinHeader_1x02_P2.54mm_Vertical_0.91_hole;1;Y2-MS1;
9;J7;PinHeader_1x02_P2.54mm_Vertical_0.91_hole;1;Y1-MS3;
10;J6;PinHeader_1x02_P2.54mm_Vertical_0.91_hole;1;Y1-MS2;
11;J5;PinHeader_1x02_P2.54mm_Vertical_0.91_hole;1;Y1-MS1;
12;J4;PinHeader_1x02_P2.54mm_Vertical_0.91_hole;1;X-MS3;
13;J3;PinHeader_1x02_P2.54mm_Vertical_0.91_hole;1;X-MS2;
14;J2;PinHeader_1x02_P2.54mm_Vertical_0.91_hole;1;X-MS1;
15;REF**,REF**,REF**,REF**;MountingHole_4.3mm_M4_ISO7380_Pad_TopBottom;4;MountingHole_4.3mm_M4_ISO7380_Pad_TopBottom;
16;J1;BarrelJack_CLIFF_FC681465S_SMT_Horizontal_Adjusted;1;Barrel_Jack;
17;Fan3,Fan2,Fan1;02P;3;Conn_01x02_Male;
18;C16-Z-CAP1,C15-Y2-CAP1,C14-Y1-CAP1,C12-X-CAP1;02P;4;CP100µF;
19;Serial1;02PA;1;Conn_01x02_Male;
20;RESETS1;02P;1;M02;
21;CRYSTAL2;CSM-7X-DU;1;12MHZ;
22;U2;SO016;1;CH340G;
23;J14;USB_Mini-B_Wuerth_65100516121_Horizontal;1;USB_B;
24;X-Driver-Crtl1,Z-Driver-Pwr1,Z-Driver-Crtl1,Y2-Driver-Pwr1,Y2-Driver-Crtl1,Y1-Driver-Pwr1,Y1-Driver-Crtl1,X-Driver-Pwr1;08P;8;Conn_01x08_Female;
25;R2;1206;1;499;
26;C1,C2;CAPC3216X178N;2;18pF;
27;Z-Driver-Mot1,Y2-Driver-Mot1,Y1-Driver-Mot1,X-Driver-Mot1;04P;4;Conn_01x04_Male;
28;R9,R8;R1206;2;1K;
29;R7,R6;R1206;2;2K7;
30;R5,R4,R3;1206;3;4.7K;
31;R1;1206;1;10K;
32;LED_TX1,LED_RX1;LED1206;2;YELLOW;
33;LED_GREEN1;1206;1;LED1206;
34;CRYSTAL1;CSM-7X-DU;1;16Mhz;
35;C13;1206;1;10nF;
36;C11,C10;1206;2;18pF;
37;C9,C8,C7,C6,C5;1206;5;100nF;
38;C3;1206;1;1uF;
39;C4;1206;1;10uF;
40;328-1;TQFP32-08;1;ATMEGA328P-AU;
