EESchema Schematic File Version 4
EELAYER 30 0
EELAYER END
$Descr A4 11693 8268
encoding utf-8
Sheet 1 3
Title ""
Date ""
Rev ""
Comp ""
Comment1 ""
Comment2 ""
Comment3 ""
Comment4 ""
$EndDescr
$Sheet
S 1000 1000 500  150 
U 61B30F36
F0 "satshakit-grbl_1" 50
F1 "satshakit-grbl_1.sch" 50
$EndSheet
$Sheet
S 3000 1000 500  150 
U 61B311E9
F0 "satshakit-grbl_2" 50
F1 "satshakit-grbl_2.sch" 50
$EndSheet
$EndSCHEMATC
